^C:\USERS\79198\DESKTOP\SKILL\VISUAL STUDIO\HOMEWORK_14\HOMEWORK_14.CPP
C:\USERS\79198\DESKTOP\SKILL\VISUAL STUDIO\HOMEWORK_14\DEBUG\VC142.PDB
C:\USERS\79198\DESKTOP\SKILL\VISUAL STUDIO\HOMEWORK_14\DEBUG\VC142.IDB
C:\USERS\79198\DESKTOP\SKILL\VISUAL STUDIO\HOMEWORK_14\DEBUG\HOMEWORK_14.OBJ
