^C:\USERS\79198\DESKTOP\SKILL\VISUAL STUDIO\HOMEWORK_14\DEBUG\HOMEWORK_14.OBJ
C:\USERS\79198\DESKTOP\SKILL\VISUAL STUDIO\HOMEWORK_14\DEBUG\HOMEWORK_14.EXE
C:\USERS\79198\DESKTOP\SKILL\VISUAL STUDIO\HOMEWORK_14\DEBUG\HOMEWORK_14.ILK
C:\USERS\79198\DESKTOP\SKILL\VISUAL STUDIO\HOMEWORK_14\DEBUG\HOMEWORK_14.PDB
